module go.6shore.net/kad

go 1.23.0

toolchain go1.23.4

require (
	github.com/go-redis/redis v6.15.9+incompatible
	github.com/gorilla/handlers v1.5.2
	github.com/gorilla/mux v1.8.1
	github.com/prometheus/client_golang v1.20.5
	github.com/sirupsen/logrus v1.9.3
	github.com/spf13/cobra v1.8.1
	go.uber.org/zap v1.27.0
	golang.org/x/sys v0.29.0 // indirect
	golang.org/x/time v0.9.0 // indirect
	k8s.io/api v0.32.0
	k8s.io/apimachinery v0.32.0
	k8s.io/client-go v0.32.0
)

require (
	go.opentelemetry.io/contrib/instrumentation/github.com/gorilla/mux/otelmux v0.58.0
	go.opentelemetry.io/otel v1.33.0
	go.opentelemetry.io/otel/exporters/jaeger v1.17.0
	go.opentelemetry.io/otel/sdk v1.33.0
)

require (
	github.com/beorn7/perks v1.0.1 // indirect
	github.com/cespare/xxhash/v2 v2.3.0 // indirect
	github.com/davecgh/go-spew v1.1.2-0.20180830191138-d8f796af33cc // indirect
	github.com/emicklei/go-restful/v3 v3.12.1 // indirect
	github.com/felixge/httpsnoop v1.0.4 // indirect
	github.com/fxamacker/cbor/v2 v2.7.0 // indirect
	github.com/go-logr/logr v1.4.2 // indirect
	github.com/go-logr/stdr v1.2.2 // indirect
	github.com/go-openapi/jsonpointer v0.21.0 // indirect
	github.com/go-openapi/jsonreference v0.21.0 // indirect
	github.com/go-openapi/swag v0.23.0 // indirect
	github.com/gogo/protobuf v1.3.2 // indirect
	github.com/golang/protobuf v1.5.4 // indirect
	github.com/google/gnostic-models v0.6.9 // indirect
	github.com/google/go-cmp v0.6.0 // indirect
	github.com/google/gofuzz v1.2.0 // indirect
	github.com/google/uuid v1.6.0 // indirect
	github.com/inconshreveable/mousetrap v1.1.0 // indirect
	github.com/josharian/intern v1.0.0 // indirect
	github.com/json-iterator/go v1.1.12 // indirect
	github.com/klauspost/compress v1.17.11 // indirect
	github.com/mailru/easyjson v0.9.0 // indirect
	github.com/modern-go/concurrent v0.0.0-20180306012644-bacd9c7ef1dd // indirect
	github.com/modern-go/reflect2 v1.0.2 // indirect
	github.com/munnerz/goautoneg v0.0.0-20191010083416-a7dc8b61c822 // indirect
	github.com/onsi/ginkgo v1.16.5 // indirect
	github.com/pkg/errors v0.9.1 // indirect
	github.com/prometheus/client_model v0.6.1 // indirect
	github.com/prometheus/common v0.61.0 // indirect
	github.com/prometheus/procfs v0.15.1 // indirect
	github.com/spf13/pflag v1.0.5 // indirect
	github.com/x448/float16 v0.8.4 // indirect
	go.opentelemetry.io/auto/sdk v1.1.0 // indirect
	go.opentelemetry.io/otel/metric v1.33.0 // indirect
	go.opentelemetry.io/otel/trace v1.33.0 // indirect
	go.uber.org/multierr v1.11.0 // indirect
	golang.org/x/net v0.34.0 // indirect
	golang.org/x/oauth2 v0.25.0 // indirect
	golang.org/x/term v0.28.0 // indirect
	golang.org/x/text v0.21.0 // indirect
	google.golang.org/protobuf v1.36.2 // indirect
	gopkg.in/evanphx/json-patch.v4 v4.12.0 // indirect
	gopkg.in/inf.v0 v0.9.1 // indirect
	gopkg.in/yaml.v3 v3.0.1 // indirect
	k8s.io/klog/v2 v2.130.1 // indirect
	k8s.io/kube-openapi v0.0.0-20241212222426-2c72e554b1e7 // indirect
	k8s.io/utils v0.0.0-20241210054802-24370beab758 // indirect
	sigs.k8s.io/json v0.0.0-20241014173422-cfa47c3a1cc8 // indirect
	sigs.k8s.io/structured-merge-diff/v4 v4.5.0 // indirect
	sigs.k8s.io/yaml v1.4.0 // indirect
)
